Maternal Health Risk Prediction
…
Model Testing

Table 7: Multinomial Logistic Regression Predicted Probabilities

# A tibble: 202 × 5
      ID Predicted_Class `low risk` `mid risk` `high risk`
   <dbl> <chr>                <dbl>      <dbl>       <dbl>
 1     1 high risk           0.0131      0.204     0.783  
 2     2 low risk            0.483       0.364     0.153  
 3     3 mid risk            0.257       0.636     0.107  
 4     4 low risk            0.509       0.402     0.0892 
 5     5 low risk            0.652       0.249     0.0990 
 6     6 low risk            0.893       0.103     0.00394
 7     7 mid risk            0.326       0.596     0.0778 
 8     8 low risk            0.626       0.315     0.0595 
 9     9 low risk            0.664       0.203     0.133  
10    10 low risk            0.818       0.149     0.0333 
# ℹ 192 more rows
…
