Maternal Health Risk Prediction
…
Model Testing

Table 7: Multinomial Logistic Regression Predicted Probabilities

# A tibble: 89 × 5
      ID Predicted_Class `low risk` `mid risk` `high risk`
   <dbl> <chr>                <dbl>      <dbl>       <dbl>
 1     1 high risk        0.00168      0.0461      0.952  
 2     2 high risk        0.0102       0.114       0.876  
 3     3 low risk         0.730        0.147       0.122  
 4     4 high risk        0.0000465    0.00390     0.996  
 5     5 mid risk         0.421        0.500       0.0782 
 6     6 low risk         0.855        0.0918      0.0534 
 7     7 low risk         0.546        0.373       0.0813 
 8     8 low risk         0.762        0.166       0.0718 
 9     9 low risk         0.653        0.267       0.0804 
10    10 low risk         0.914        0.0796      0.00624
# ℹ 79 more rows
…
